{
  "id" : "2724a87c-9f7a-439b-ac59-882755385792",
  "name" : "concepts",
  "request" : {
    "url" : "/concepts?orgPath=/STAT/972417807",
    "method" : "GET"
  },
  "response" : {
    "status" : 200,
    "body" : "{\n  \"_embedded\" : {\n    \"concepts\" : [ {\n      \"id\" : \"3e983b0f-9ce5-42bb-929a-4cdd4914cb39\",\n      \"uri\" : \"https://fellesdatakatalog.brreg.no/api/concepts/3e983b0f-9ce5-42bb-929a-4cdd4914cb39\",\n      \"identifier\" : \"http://begrepskatalogen/begrep/b57408c6-d96a-11e6-8d9b-005056821322\",\n      \"application\" : [ ],\n      \"definition\" : {\n        \"text\" : {\n          \"nb\" : \"Inntektsfradrag for premie betalt av skattepliktige til frivillig syke- og ulykkesforsikring i løpet av skattleggingsperioden\"\n        },\n        \"remark\" : {\n          \"nb\" : \"Fradraget er begrenset oppad til et lovbestemt beløp for personlig skattepliktig, men fradraget kan ikke kombineres med minstefradrag. Denne begrensningen gjelder og for ektefeller samlet.\"\n        },\n        \"source\" : {\n          \"prefLabel\" : {\n            \"nb\" : \"Skatteloven § 6-47 bokstav d\"\n          }\n        },\n        \"sourceRelationship\" : \"basertPåKilde\",\n        \"sources\" : [ {\n          \"text\" : {\n            \"nb\" : \"Skatteloven § 6-47 bokstav d\"\n          },\n          \"uri\" : \"https://lovdata.no/NL/lov/1999-03-26-14/§6-47\"\n        } ]\n      },\n      \"subject\" : {\n        \"nb\" : \"Formues- og inntektsskatt\"\n      },\n      \"prefLabel\" : {\n        \"nb\" : \"inntektsfradrag for premie til syke- og ulykkesforsikring\"\n      },\n      \"altLabel\" : [ ],\n      \"hiddenLabel\" : [ ],\n      \"contactPoint\" : {\n        \"email\" : \"begrepskatalogen@skatteetaten.no\"\n      },\n      \"seeAlso\" : [ ],\n      \"publisher\" : {\n        \"uri\" : \"http://data.brreg.no/enhetsregisteret/enhet/974761076\",\n        \"name\" : \"SKATTEETATEN\",\n        \"orgPath\" : \"/STAT/972417807/974761076\",\n        \"prefLabel\" : {\n          \"no\" : \"SKATTEETATEN\"\n        }\n      },\n      \"harvest\" : {\n        \"firstHarvested\" : \"2019-04-29T12:16:49.218+0000\",\n        \"lastHarvested\" : \"2020-06-02T06:00:21.748+0000\"\n      }\n    }, {\n      \"id\" : \"d37f8cc2-4c86-4721-b84d-31269e3ea13b\",\n      \"uri\" : \"https://fellesdatakatalog.brreg.no/api/concepts/d37f8cc2-4c86-4721-b84d-31269e3ea13b\",\n      \"identifier\" : \"http://begrepskatalogen/begrep/5138da0e-be20-11e6-8004-005056825ca0\",\n      \"application\" : [ ],\n      \"definition\" : {\n        \"text\" : {\n          \"nb\" : \"er geografisk navn på hvor i fødekommunen eller fødelandet personen er født.\"\n        },\n        \"remark\" : {\n          \"nb\" : \"Denne opplysningen finnes ikke for alle personer i folkeregisteret\"\n        },\n        \"source\" : {\n          \"prefLabel\" : {\n            \"nb\" : \"DSF Web`s hjelpeside\"\n          }\n        },\n        \"sources\" : [ {\n          \"text\" : {\n            \"nb\" : \"DSF Web`s hjelpeside\"\n          }\n        } ]\n      },\n      \"subject\" : {\n        \"nb\" : \"Folkeregister\"\n      },\n      \"prefLabel\" : {\n        \"nb\" : \"fødested\"\n      },\n      \"altLabel\" : [ ],\n      \"hiddenLabel\" : [ ],\n      \"contactPoint\" : {\n        \"email\" : \"begrepskatalogen@skatteetaten.no\"\n      },\n      \"validFromIncluding\" : \"2016-10-05\",\n      \"seeAlso\" : [ ],\n      \"publisher\" : {\n        \"uri\" : \"http://data.brreg.no/enhetsregisteret/enhet/974761076\",\n        \"name\" : \"SKATTEETATEN\",\n        \"orgPath\" : \"/STAT/972417807/974761076\",\n        \"prefLabel\" : {\n          \"no\" : \"SKATTEETATEN\"\n        }\n      },\n      \"harvest\" : {\n        \"firstHarvested\" : \"2019-04-29T12:16:49.415+0000\",\n        \"lastHarvested\" : \"2020-06-02T06:00:21.844+0000\"\n      }\n    }, {\n      \"id\" : \"e1d2c745-3980-4540-bd8c-e90a0a6948a6\",\n      \"uri\" : \"https://fellesdatakatalog.brreg.no/api/concepts/e1d2c745-3980-4540-bd8c-e90a0a6948a6\",\n      \"identifier\" : \"http://begrepskatalogen/begrep/60958aa8-3941-11e7-b258-0050568204d6\",\n      \"application\" : [ ],\n      \"definition\" : {\n        \"text\" : {\n          \"nb\" : \"en form for usikkerhetsanalyse der det tas hensyn til alle kritiske prissatte usikkerhetsfaktorer når det beregnes hvor sannsynlig det er at den samfunnsøkonomiske\\nlønnsomheten blir lavere eller høyere, enn forventet\"\n        },\n        \"source\" : {\n          \"prefLabel\" : {\n            \"nb\" : \"DFØ:Veileder i samfunnsøkonomiske analyser\"\n          }\n        },\n        \"sources\" : [ {\n          \"text\" : {\n            \"nb\" : \"DFØ:Veileder i samfunnsøkonomiske analyser\"\n          }\n        } ]\n      },\n      \"subject\" : {\n        \"nb\" : \"Økonomiprosesser\"\n      },\n      \"prefLabel\" : {\n        \"nb\" : \"simuleringer\"\n      },\n      \"altLabel\" : [ ],\n      \"hiddenLabel\" : [ ],\n      \"contactPoint\" : {\n        \"email\" : \"begrepskatalogen@skatteetaten.no\"\n      },\n      \"validFromIncluding\" : \"2017-02-09\",\n      \"seeAlso\" : [ ],\n      \"publisher\" : {\n        \"uri\" : \"http://data.brreg.no/enhetsregisteret/enhet/974761076\",\n        \"name\" : \"SKATTEETATEN\",\n        \"orgPath\" : \"/STAT/972417807/974761076\",\n        \"prefLabel\" : {\n          \"no\" : \"SKATTEETATEN\"\n        }\n      },\n      \"harvest\" : {\n        \"firstHarvested\" : \"2019-04-29T12:16:49.468+0000\",\n        \"lastHarvested\" : \"2020-06-02T06:00:21.858+0000\"\n      }\n    }, {\n      \"id\" : \"0f9d6ccb-4142-49fe-a42a-9d3c3a1a51e1\",\n      \"uri\" : \"https://fellesdatakatalog.brreg.no/api/concepts/0f9d6ccb-4142-49fe-a42a-9d3c3a1a51e1\",\n      \"identifier\" : \"http://begrepskatalogen/begrep/8ea2df67-7662-11e6-a74e-7e18b36b3fd9\",\n      \"application\" : [ ],\n      \"definition\" : {\n        \"text\" : {\n          \"nb\" : \"pensjon fra andre enn folketrygden som er tilstått på grunn av nedsatt ervervsevne som følge av sykdom, ulykke eller medfødt skade.\"\n        },\n        \"source\" : {\n          \"prefLabel\" : {\n            \"nb\" : \"www.snl.no\"\n          }\n        },\n        \"sourceRelationship\" : \"basertPåKilde\",\n        \"sources\" : [ {\n          \"text\" : {\n            \"nb\" : \"www.snl.no\"\n          }\n        } ]\n      },\n      \"subject\" : {\n        \"nb\" : \"Formues- og inntektsskatt\"\n      },\n      \"prefLabel\" : {\n        \"nb\" : \"uførepensjon fra andre enn folketrygden\"\n      },\n      \"altLabel\" : [ ],\n      \"hiddenLabel\" : [ ],\n      \"contactPoint\" : {\n        \"email\" : \"begrepskatalogen@skatteetaten.no\"\n      },\n      \"seeAlso\" : [ ],\n      \"publisher\" : {\n        \"uri\" : \"http://data.brreg.no/enhetsregisteret/enhet/974761076\",\n        \"name\" : \"SKATTEETATEN\",\n        \"orgPath\" : \"/STAT/972417807/974761076\",\n        \"prefLabel\" : {\n          \"no\" : \"SKATTEETATEN\"\n        }\n      },\n      \"harvest\" : {\n        \"firstHarvested\" : \"2019-04-29T12:16:49.169+0000\",\n        \"lastHarvested\" : \"2020-06-02T06:00:21.724+0000\"\n      }\n    }, {\n      \"id\" : \"a08deb73-67d7-4ae7-8cfc-147451313a51\",\n      \"uri\" : \"https://fellesdatakatalog.brreg.no/api/concepts/a08deb73-67d7-4ae7-8cfc-147451313a51\",\n      \"identifier\" : \"http://begrepskatalogen/begrep/cc89e444-940f-11e9-a790-005056823b15\",\n      \"application\" : [ ],\n      \"definition\" : {\n        \"text\" : {\n          \"nb\" : \"beregnet gevinst knyttet til aksjer som ikke er forhåndsutfylt i skattemeldingen.\"\n        },\n        \"remark\" : {\n          \"nb\" : \"Gevinst ved salg av aksjer og/eller aksjefond som ikke er  forhåndsutfylt i skattemeldingen,  skal fylles ut i skjemaet RF-1159.  Vær oppmerksom på at  gevinst ved salg av kombinasjonsfond (aksje og rentepapirer), skal splittes i en aksje- og rentedel. Grunnen til at du må splitte er at det er ulike skattesatser for hhv aksje- og renteinntekter.\"\n        },\n        \"sourceRelationship\" : \"egendefinert\",\n        \"sources\" : [ ]\n      },\n      \"subject\" : {\n        \"nb\" : \"Formues- og inntektsskatt\"\n      },\n      \"prefLabel\" : {\n        \"nb\" : \"gevinst ved salg av aksje og verdipapirfond aksjedel\"\n      },\n      \"altLabel\" : [ ],\n      \"hiddenLabel\" : [ ],\n      \"contactPoint\" : {\n        \"email\" : \"begrepskatalogen@skatteetaten.no\"\n      },\n      \"seeAlso\" : [ ],\n      \"publisher\" : {\n        \"uri\" : \"http://data.brreg.no/enhetsregisteret/enhet/974761076\",\n        \"name\" : \"SKATTEETATEN\",\n        \"orgPath\" : \"/STAT/972417807/974761076\",\n        \"prefLabel\" : {\n          \"no\" : \"SKATTEETATEN\"\n        }\n      },\n      \"harvest\" : {\n        \"firstHarvested\" : \"2019-11-20T11:11:36.921+0000\",\n        \"lastHarvested\" : \"2020-06-02T06:00:21.830+0000\"\n      }\n    }, {\n      \"id\" : \"fd86e929-04c5-4b8a-a349-1555adc587aa\",\n      \"uri\" : \"https://fellesdatakatalog.brreg.no/api/concepts/fd86e929-04c5-4b8a-a349-1555adc587aa\",\n      \"identifier\" : \"http://begrepskatalogen/begrep/dbd77a8e-4fa9-11e9-80b4-0050568204d6\",\n      \"application\" : [ ],\n      \"definition\" : {\n        \"text\" : {\n          \"nb\" : \"forrige medeier som deltok i registrering for kjøretøy\"\n        },\n        \"sourceRelationship\" : \"egendefinert\",\n        \"sources\" : [ ]\n      },\n      \"subject\" : {\n        \"nb\" : \"Motorvogn\"\n      },\n      \"prefLabel\" : {\n        \"nb\" : \"forrige registrerte medeier\"\n      },\n      \"altLabel\" : [ ],\n      \"hiddenLabel\" : [ ],\n      \"contactPoint\" : {\n        \"email\" : \"begrepskatalogen@skatteetaten.no\"\n      },\n      \"seeAlso\" : [ ],\n      \"publisher\" : {\n        \"uri\" : \"http://data.brreg.no/enhetsregisteret/enhet/974761076\",\n        \"name\" : \"SKATTEETATEN\",\n        \"orgPath\" : \"/STAT/972417807/974761076\",\n        \"prefLabel\" : {\n          \"no\" : \"SKATTEETATEN\"\n        }\n      },\n      \"harvest\" : {\n        \"firstHarvested\" : \"2019-04-29T12:16:48.224+0000\",\n        \"lastHarvested\" : \"2020-06-02T06:00:21.230+0000\"\n      }\n    }, {\n      \"id\" : \"869f864e-a50e-416e-aa9c-51b0e87a88df\",\n      \"uri\" : \"https://fellesdatakatalog.brreg.no/api/concepts/869f864e-a50e-416e-aa9c-51b0e87a88df\",\n      \"identifier\" : \"http://begrepskatalogen/begrep/5e20d189-07df-11e7-9a7f-005056821322\",\n      \"application\" : [ ],\n      \"definition\" : {\n        \"text\" : {\n          \"nb\" : \"organisasjonens overordnede intensjoner og retningslinjer i forhold til ledelsessystemet for kvalitet slik det er offisielt utrykt av den øverste ledelsen\"\n        },\n        \"sources\" : [ ]\n      },\n      \"subject\" : {\n        \"nb\" : \"Kvalitetsstyring\"\n      },\n      \"prefLabel\" : {\n        \"nb\" : \"kvalitetspolicy\"\n      },\n      \"altLabel\" : [ ],\n      \"hiddenLabel\" : [ ],\n      \"contactPoint\" : {\n        \"email\" : \"begrepskatalogen@skatteetaten.no\"\n      },\n      \"seeAlso\" : [ ],\n      \"publisher\" : {\n        \"uri\" : \"http://data.brreg.no/enhetsregisteret/enhet/974761076\",\n        \"name\" : \"SKATTEETATEN\",\n        \"orgPath\" : \"/STAT/972417807/974761076\",\n        \"prefLabel\" : {\n          \"no\" : \"SKATTEETATEN\"\n        }\n      },\n      \"harvest\" : {\n        \"firstHarvested\" : \"2019-04-29T12:16:49.199+0000\",\n        \"lastHarvested\" : \"2020-06-02T06:00:21.736+0000\"\n      }\n    }, {\n      \"id\" : \"040d3ad0-037b-4bc7-809a-550c3ed0ba27\",\n      \"uri\" : \"https://fellesdatakatalog.brreg.no/api/concepts/040d3ad0-037b-4bc7-809a-550c3ed0ba27\",\n      \"identifier\" : \"http://begrepskatalogen/begrep/1a9af0e3-098d-11e7-94d1-005056825ca0\",\n      \"application\" : [ ],\n      \"definition\" : {\n        \"text\" : {\n          \"nb\" : \"landet hvor utsteder av identifikasjonsnummer for person eller dokument har myndighet til å utstede\"\n        },\n        \"sources\" : [ ]\n      },\n      \"subject\" : {\n        \"nb\" : \"Folkeregister\"\n      },\n      \"prefLabel\" : {\n        \"nb\" : \"utstederland\"\n      },\n      \"altLabel\" : [ ],\n      \"hiddenLabel\" : [ ],\n      \"contactPoint\" : {\n        \"email\" : \"begrepskatalogen@skatteetaten.no\"\n      },\n      \"validFromIncluding\" : \"2017-03-03\",\n      \"seeAlso\" : [ ],\n      \"publisher\" : {\n        \"uri\" : \"http://data.brreg.no/enhetsregisteret/enhet/974761076\",\n        \"name\" : \"SKATTEETATEN\",\n        \"orgPath\" : \"/STAT/972417807/974761076\",\n        \"prefLabel\" : {\n          \"no\" : \"SKATTEETATEN\"\n        }\n      },\n      \"harvest\" : {\n        \"firstHarvested\" : \"2019-04-29T12:16:49.002+0000\",\n        \"lastHarvested\" : \"2020-06-02T06:00:21.671+0000\"\n      }\n    }, {\n      \"id\" : \"45e64e30-0ce5-41b6-8150-dce7ba1a6bd4\",\n      \"uri\" : \"https://fellesdatakatalog.brreg.no/api/concepts/45e64e30-0ce5-41b6-8150-dce7ba1a6bd4\",\n      \"identifier\" : \"http://begrepskatalogen/begrep/1e3330a4-6837-11e6-a7ce-fac03dffe1d7\",\n      \"application\" : [ ],\n      \"definition\" : {\n        \"text\" : {\n          \"nb\" : \"vederlag for å overføre eiendomsretten til et formuesobjekt til ny eier.\"\n        },\n        \"source\" : {\n          \"prefLabel\" : {\n            \"nb\" : \"Skatteloven § 9-2, http://lovdata.no/lov/1999-03-26-14/§9-2, , Skatte-ABC emnet Realisasjonsbegrepet\"\n          }\n        },\n        \"sourceRelationship\" : \"basertPåKilde\",\n        \"sources\" : [ {\n          \"text\" : {\n            \"nb\" : \"Skatteloven § 9-2, http://lovdata.no/lov/1999-03-26-14/§9-2, , Skatte-ABC emnet Realisasjonsbegrepet\"\n          },\n          \"uri\" : \"https://www.skatteetaten.no/rettskilder/type/handboker/skatte-abc/\"\n        } ]\n      },\n      \"subject\" : {\n        \"nb\" : \"Formues- og inntektsskatt\"\n      },\n      \"prefLabel\" : {\n        \"nb\" : \"realisasjonsvederlag\"\n      },\n      \"altLabel\" : [ ],\n      \"hiddenLabel\" : [ ],\n      \"contactPoint\" : {\n        \"email\" : \"begrepskatalogen@skatteetaten.no\"\n      },\n      \"validFromIncluding\" : \"2016-08-22\",\n      \"seeAlso\" : [ ],\n      \"publisher\" : {\n        \"uri\" : \"http://data.brreg.no/enhetsregisteret/enhet/974761076\",\n        \"name\" : \"SKATTEETATEN\",\n        \"orgPath\" : \"/STAT/972417807/974761076\",\n        \"prefLabel\" : {\n          \"no\" : \"SKATTEETATEN\"\n        }\n      },\n      \"harvest\" : {\n        \"firstHarvested\" : \"2019-04-29T12:16:51.361+0000\",\n        \"lastHarvested\" : \"2020-06-02T06:00:22.456+0000\"\n      }\n    }, {\n      \"id\" : \"3c32dbaa-d530-4c9f-8862-8ac0c3535d87\",\n      \"uri\" : \"https://fellesdatakatalog.brreg.no/api/concepts/3c32dbaa-d530-4c9f-8862-8ac0c3535d87\",\n      \"identifier\" : \"http://begrepskatalogen/begrep/5138da0b-be20-11e6-8004-005056825ca0\",\n      \"application\" : [ ],\n      \"definition\" : {\n        \"text\" : {\n          \"nb\" : \"alle fødselstilbud i regi av helseforetakene\"\n        },\n        \"remark\" : {\n          \"nb\" : \"Alle fødeinstitusjoner i Norge skal melde fødsler til Medisinsk fødselsregister.\\nAlternativene er assistert hjemmeføsel, eller fødsel utenfor/på vei til fødeinstitusjon.\"\n        },\n        \"source\" : {\n          \"prefLabel\" : {\n            \"nb\" : \"Forslag fra AMW\"\n          }\n        },\n        \"sources\" : [ {\n          \"text\" : {\n            \"nb\" : \"Forslag fra AMW\"\n          }\n        } ]\n      },\n      \"subject\" : {\n        \"nb\" : \"Folkeregister\"\n      },\n      \"prefLabel\" : {\n        \"nb\" : \"fødeinstitusjon\"\n      },\n      \"altLabel\" : [ ],\n      \"hiddenLabel\" : [ ],\n      \"contactPoint\" : {\n        \"email\" : \"begrepskatalogen@skatteetaten.no\"\n      },\n      \"validFromIncluding\" : \"2016-10-05\",\n      \"seeAlso\" : [ ],\n      \"publisher\" : {\n        \"uri\" : \"http://data.brreg.no/enhetsregisteret/enhet/974761076\",\n        \"name\" : \"SKATTEETATEN\",\n        \"orgPath\" : \"/STAT/972417807/974761076\",\n        \"prefLabel\" : {\n          \"no\" : \"SKATTEETATEN\"\n        }\n      },\n      \"harvest\" : {\n        \"firstHarvested\" : \"2019-04-29T12:16:50.890+0000\",\n        \"lastHarvested\" : \"2020-06-02T06:00:22.224+0000\"\n      }\n    } ]\n  },\n  \"page\" : {\n    \"size\" : 10,\n    \"totalElements\" : 3302,\n    \"totalPages\" : 331,\n    \"number\" : 0\n  }\n}",
    "headers" : {
      "Server" : "nginx/1.17.10",
      "Date" : "Tue, 02 Jun 2020 10:13:00 GMT",
      "Content-Type" : "application/json;charset=UTF-8",
      "Vary" : [ "Accept-Encoding", "Accept, Accept-Encoding" ],
      "Via" : "1.1 google",
      "Alt-Svc" : "clear"
    }
  },
  "uuid" : "2724a87c-9f7a-439b-ac59-882755385792",
  "persistent" : true,
  "insertionIndex" : 743
}